{
    "buildit": {
        "buildit-plugins": {
            "plugin": "inouk.buildit.git_checkout",
            "repositories": {
                "core-buildit-plugins": {
                    "repository": "https://gitlab.com/inouk/ikb.git",
                    "directory": "ikb_plugins",
                    "refspec__disabled": null,
                    "update": true
                },
                "pglookout": {
                    "repository": "https://github.com/aiven/pglookout.git",
                    "directory": "../pglookout",
                    "/refspec": "will be defined in buildit.json with a git refspec",
                    "update": false
                }
            }
        },
        "ENV": {
            "plugin": "ikb_plugins.environ"
        },
        "py3x": {
            "plugin": "ikb_plugins.virtualenv",
            "name": "py3x",
            "interpreter": "python3",
            "setuptools-version": "46.1.3",
            "pip-version": "21.0.1",
            "eggs": {
                "pglookout": {
                    "name": "pglookout",
                    "editable": "./pglookout"
                }
            }
        },
        "mpy_pglookout.service": {
            "plugin": "ikb_plugins.systemd",
            "Description": "Muppy pglookout service",
            "ExecStart": "${py3x:venv_bin_path}/pglookout",
            "//ExecStart_args": "--config=\"https://dev.cyril-dev.muppy.ovh/mpy/api/v1/pgha_pglookout_config?muppy-static-token=hohoho&rcs_name=ha\"",
            "///ExecStart_args": "--config=\"https://dev.cyril-dev.muppy.ovh/mpy/api/v1/pgha_pglookout_config?muppy-static-token=hohoho&cluster_name=mpypg-gr-2.muppy.ovh\"",
            "Restart": "always",
            "User": "${ENV:USER}",
            "//Group": "${ENV:USER}",
            "Type": "simple",
            "WorkingDirectory": "${root_directory}",
            "//RootDirectory": "${}",
            "//Environment": {
                "MPY_MONITOR_CONFIG": "\"https://dev.cyril-dev.muppy.ovh/mpy/api/v1/pgha_pglookout_config?muppy-static-token=hohoho&rcs_name=ha\""
            },
            "Install with": [
                "ikb systemd.setup-service -E \"--config=\"https://dev.cyril-dev.muppy.ovh/mpy/api/v1/pgha_pglookout_config?muppy-static-token=hohoho&rcs_name=ha\"\"",
                "or uncomment ExecStart_args above"
            ]
        },
        "run_command": "pglookout 'https://dev.cyril-dev.muppy.ovh/mpy/api/v1/pgha_pglookout_config?muppy-static-token=hohoho&rcs_name=ha'"
    }
}
